xpm_cdc.sv,systemverilog,xil_defaultlib,../../../../../../EDA/Xilinx/v2016_2/Vivado/2016.2/data/ip/xpm/xpm_cdc/hdl/xpm_cdc.sv,incdir="../../../ipstatic/clk_wiz_v5_3_1"incdir="../../../ipstatic/clk_wiz_v5_3_1"
xpm_memory_base.sv,systemverilog,xil_defaultlib,../../../../../../EDA/Xilinx/v2016_2/Vivado/2016.2/data/ip/xpm/xpm_memory/hdl/xpm_memory_base.sv,incdir="../../../ipstatic/clk_wiz_v5_3_1"incdir="../../../ipstatic/clk_wiz_v5_3_1"
xpm_memory_dpdistram.sv,systemverilog,xil_defaultlib,../../../../../../EDA/Xilinx/v2016_2/Vivado/2016.2/data/ip/xpm/xpm_memory/hdl/xpm_memory_dpdistram.sv,incdir="../../../ipstatic/clk_wiz_v5_3_1"incdir="../../../ipstatic/clk_wiz_v5_3_1"
xpm_memory_dprom.sv,systemverilog,xil_defaultlib,../../../../../../EDA/Xilinx/v2016_2/Vivado/2016.2/data/ip/xpm/xpm_memory/hdl/xpm_memory_dprom.sv,incdir="../../../ipstatic/clk_wiz_v5_3_1"incdir="../../../ipstatic/clk_wiz_v5_3_1"
xpm_memory_sdpram.sv,systemverilog,xil_defaultlib,../../../../../../EDA/Xilinx/v2016_2/Vivado/2016.2/data/ip/xpm/xpm_memory/hdl/xpm_memory_sdpram.sv,incdir="../../../ipstatic/clk_wiz_v5_3_1"incdir="../../../ipstatic/clk_wiz_v5_3_1"
xpm_memory_spram.sv,systemverilog,xil_defaultlib,../../../../../../EDA/Xilinx/v2016_2/Vivado/2016.2/data/ip/xpm/xpm_memory/hdl/xpm_memory_spram.sv,incdir="../../../ipstatic/clk_wiz_v5_3_1"incdir="../../../ipstatic/clk_wiz_v5_3_1"
xpm_memory_sprom.sv,systemverilog,xil_defaultlib,../../../../../../EDA/Xilinx/v2016_2/Vivado/2016.2/data/ip/xpm/xpm_memory/hdl/xpm_memory_sprom.sv,incdir="../../../ipstatic/clk_wiz_v5_3_1"incdir="../../../ipstatic/clk_wiz_v5_3_1"
xpm_memory_tdpram.sv,systemverilog,xil_defaultlib,../../../../../../EDA/Xilinx/v2016_2/Vivado/2016.2/data/ip/xpm/xpm_memory/hdl/xpm_memory_tdpram.sv,incdir="../../../ipstatic/clk_wiz_v5_3_1"incdir="../../../ipstatic/clk_wiz_v5_3_1"
xpm_VCOMP.vhd,vhdl,xpm,../../../../../../EDA/Xilinx/v2016_2/Vivado/2016.2/data/ip/xpm/xpm_VCOMP.vhd,incdir="../../../ipstatic/clk_wiz_v5_3_1"incdir="../../../ipstatic/clk_wiz_v5_3_1"
PLL_for_elink_ILA_clk_wiz.v,verilog,xil_defaultlib,../../../../laser.srcs/sources_1/ip/PLL_for_elink_ILA/PLL_for_elink_ILA_clk_wiz.v,incdir="../../../ipstatic/clk_wiz_v5_3_1"incdir="../../../ipstatic/clk_wiz_v5_3_1"
PLL_for_elink_ILA.v,verilog,xil_defaultlib,../../../../laser.srcs/sources_1/ip/PLL_for_elink_ILA/PLL_for_elink_ILA.v,incdir="../../../ipstatic/clk_wiz_v5_3_1"incdir="../../../ipstatic/clk_wiz_v5_3_1"
glbl.v,Verilog,xil_defaultlib,glbl.v
