sv xil_defaultlib "C:/EDA/Xilinx/v2016_2/Vivado/2016.2/data/ip/xpm/xpm_cdc/hdl/xpm_cdc.sv" 
sv xil_defaultlib "C:/EDA/Xilinx/v2016_2/Vivado/2016.2/data/ip/xpm/xpm_memory/hdl/xpm_memory_base.sv" 
sv xil_defaultlib "C:/EDA/Xilinx/v2016_2/Vivado/2016.2/data/ip/xpm/xpm_memory/hdl/xpm_memory_dpdistram.sv" 
sv xil_defaultlib "C:/EDA/Xilinx/v2016_2/Vivado/2016.2/data/ip/xpm/xpm_memory/hdl/xpm_memory_dprom.sv" 
sv xil_defaultlib "C:/EDA/Xilinx/v2016_2/Vivado/2016.2/data/ip/xpm/xpm_memory/hdl/xpm_memory_sdpram.sv" 
sv xil_defaultlib "C:/EDA/Xilinx/v2016_2/Vivado/2016.2/data/ip/xpm/xpm_memory/hdl/xpm_memory_spram.sv" 
sv xil_defaultlib "C:/EDA/Xilinx/v2016_2/Vivado/2016.2/data/ip/xpm/xpm_memory/hdl/xpm_memory_sprom.sv" 
sv xil_defaultlib "C:/EDA/Xilinx/v2016_2/Vivado/2016.2/data/ip/xpm/xpm_memory/hdl/xpm_memory_tdpram.sv" 
verilog blk_mem_gen_v8_3_3 "../../../ipstatic/blk_mem_gen_v8_3_3/simulation/blk_mem_gen_v8_3.v" 
verilog xil_defaultlib "../../../../laser.srcs/sources_1/ip/xlx_k7v7_rx_dpram/sim/xlx_k7v7_rx_dpram.v" 

verilog xil_defaultlib "glbl.v"

nosort
