
User Configuration
--------------------------------------------------------------------------------
Algorithm                  :     Minimum_Area
Memory Type                :     Simple_Dual_Port_RAM
Port A Read Width          :     [40]
Port A Write Width         :     [40]
Memory Depth               :     [32]
Port B Read Width          :     [160]
Port B Write Width         :     [160]

----------------------------------------------------------------------------------

Block RAM resource(s) (18K BRAMs)    : [1]
Block RAM resource(s) (36K BRAMs)    : [2]
----------------------------------------------------------------------------------
Clock A Frequency          :         [100]
Port A Enable Rate         :         [100]
Port A Write Rate          :         [50]
----------------------------------------------------------------------------------
Estimated Power for IP     :     12.2447 mW
----------------------------------------------------------------------------------
