xpm_cdc.sv,systemverilog,xil_defaultlib,../../../../../../../../../../EDA/Xilinx/v2016_2/Vivado/2016.2/data/ip/xpm/xpm_cdc/hdl/xpm_cdc.sv,incdir="../../../../laser.srcs/sources_1/ip/lcd_ila/ila_v6_1_1/hdl/verilog"incdir="../../../../laser.srcs/sources_1/ip/lcd_ila/ltlib_v1_0_0/hdl/verilog"incdir="../../../../laser.srcs/sources_1/ip/lcd_ila/xsdbm_v1_1_3/hdl/verilog"incdir="../../../../laser.srcs/sources_1/ip/lcd_ila/xsdbs_v1_0_2/hdl/verilog"
xpm_memory_base.sv,systemverilog,xil_defaultlib,../../../../../../../../../../EDA/Xilinx/v2016_2/Vivado/2016.2/data/ip/xpm/xpm_memory/hdl/xpm_memory_base.sv,incdir="../../../../laser.srcs/sources_1/ip/lcd_ila/ila_v6_1_1/hdl/verilog"incdir="../../../../laser.srcs/sources_1/ip/lcd_ila/ltlib_v1_0_0/hdl/verilog"incdir="../../../../laser.srcs/sources_1/ip/lcd_ila/xsdbm_v1_1_3/hdl/verilog"incdir="../../../../laser.srcs/sources_1/ip/lcd_ila/xsdbs_v1_0_2/hdl/verilog"
xpm_memory_dpdistram.sv,systemverilog,xil_defaultlib,../../../../../../../../../../EDA/Xilinx/v2016_2/Vivado/2016.2/data/ip/xpm/xpm_memory/hdl/xpm_memory_dpdistram.sv,incdir="../../../../laser.srcs/sources_1/ip/lcd_ila/ila_v6_1_1/hdl/verilog"incdir="../../../../laser.srcs/sources_1/ip/lcd_ila/ltlib_v1_0_0/hdl/verilog"incdir="../../../../laser.srcs/sources_1/ip/lcd_ila/xsdbm_v1_1_3/hdl/verilog"incdir="../../../../laser.srcs/sources_1/ip/lcd_ila/xsdbs_v1_0_2/hdl/verilog"
xpm_memory_dprom.sv,systemverilog,xil_defaultlib,../../../../../../../../../../EDA/Xilinx/v2016_2/Vivado/2016.2/data/ip/xpm/xpm_memory/hdl/xpm_memory_dprom.sv,incdir="../../../../laser.srcs/sources_1/ip/lcd_ila/ila_v6_1_1/hdl/verilog"incdir="../../../../laser.srcs/sources_1/ip/lcd_ila/ltlib_v1_0_0/hdl/verilog"incdir="../../../../laser.srcs/sources_1/ip/lcd_ila/xsdbm_v1_1_3/hdl/verilog"incdir="../../../../laser.srcs/sources_1/ip/lcd_ila/xsdbs_v1_0_2/hdl/verilog"
xpm_memory_sdpram.sv,systemverilog,xil_defaultlib,../../../../../../../../../../EDA/Xilinx/v2016_2/Vivado/2016.2/data/ip/xpm/xpm_memory/hdl/xpm_memory_sdpram.sv,incdir="../../../../laser.srcs/sources_1/ip/lcd_ila/ila_v6_1_1/hdl/verilog"incdir="../../../../laser.srcs/sources_1/ip/lcd_ila/ltlib_v1_0_0/hdl/verilog"incdir="../../../../laser.srcs/sources_1/ip/lcd_ila/xsdbm_v1_1_3/hdl/verilog"incdir="../../../../laser.srcs/sources_1/ip/lcd_ila/xsdbs_v1_0_2/hdl/verilog"
xpm_memory_spram.sv,systemverilog,xil_defaultlib,../../../../../../../../../../EDA/Xilinx/v2016_2/Vivado/2016.2/data/ip/xpm/xpm_memory/hdl/xpm_memory_spram.sv,incdir="../../../../laser.srcs/sources_1/ip/lcd_ila/ila_v6_1_1/hdl/verilog"incdir="../../../../laser.srcs/sources_1/ip/lcd_ila/ltlib_v1_0_0/hdl/verilog"incdir="../../../../laser.srcs/sources_1/ip/lcd_ila/xsdbm_v1_1_3/hdl/verilog"incdir="../../../../laser.srcs/sources_1/ip/lcd_ila/xsdbs_v1_0_2/hdl/verilog"
xpm_memory_sprom.sv,systemverilog,xil_defaultlib,../../../../../../../../../../EDA/Xilinx/v2016_2/Vivado/2016.2/data/ip/xpm/xpm_memory/hdl/xpm_memory_sprom.sv,incdir="../../../../laser.srcs/sources_1/ip/lcd_ila/ila_v6_1_1/hdl/verilog"incdir="../../../../laser.srcs/sources_1/ip/lcd_ila/ltlib_v1_0_0/hdl/verilog"incdir="../../../../laser.srcs/sources_1/ip/lcd_ila/xsdbm_v1_1_3/hdl/verilog"incdir="../../../../laser.srcs/sources_1/ip/lcd_ila/xsdbs_v1_0_2/hdl/verilog"
xpm_memory_tdpram.sv,systemverilog,xil_defaultlib,../../../../../../../../../../EDA/Xilinx/v2016_2/Vivado/2016.2/data/ip/xpm/xpm_memory/hdl/xpm_memory_tdpram.sv,incdir="../../../../laser.srcs/sources_1/ip/lcd_ila/ila_v6_1_1/hdl/verilog"incdir="../../../../laser.srcs/sources_1/ip/lcd_ila/ltlib_v1_0_0/hdl/verilog"incdir="../../../../laser.srcs/sources_1/ip/lcd_ila/xsdbm_v1_1_3/hdl/verilog"incdir="../../../../laser.srcs/sources_1/ip/lcd_ila/xsdbs_v1_0_2/hdl/verilog"
xpm_VCOMP.vhd,vhdl,xpm,../../../../../../../../../../EDA/Xilinx/v2016_2/Vivado/2016.2/data/ip/xpm/xpm_VCOMP.vhd,incdir="../../../../laser.srcs/sources_1/ip/lcd_ila/ila_v6_1_1/hdl/verilog"incdir="../../../../laser.srcs/sources_1/ip/lcd_ila/ltlib_v1_0_0/hdl/verilog"incdir="../../../../laser.srcs/sources_1/ip/lcd_ila/xsdbm_v1_1_3/hdl/verilog"incdir="../../../../laser.srcs/sources_1/ip/lcd_ila/xsdbs_v1_0_2/hdl/verilog"
lcd_ila.v,verilog,xil_defaultlib,../../../../laser.srcs/sources_1/ip/lcd_ila/sim/lcd_ila.v,incdir="../../../../laser.srcs/sources_1/ip/lcd_ila/ila_v6_1_1/hdl/verilog"incdir="../../../../laser.srcs/sources_1/ip/lcd_ila/ltlib_v1_0_0/hdl/verilog"incdir="../../../../laser.srcs/sources_1/ip/lcd_ila/xsdbm_v1_1_3/hdl/verilog"incdir="../../../../laser.srcs/sources_1/ip/lcd_ila/xsdbs_v1_0_2/hdl/verilog"
glbl.v,Verilog,xil_defaultlib,glbl.v
